# 3ds Max Wavefront OBJ Exporter v0.97b - (c)2007 guruware
# File Created: 02.04.2021 12:43:46

#
# object Plane001
#

v  -0.500000 0.000000 -0.500000
v  -0.500000 0.000000 0.500000
v  0.500000 0.000000 -0.500000
v  0.500000 0.000000 0.500000
# 4 vertices

vn 0.000000 1.000000 -0.000000
# 1 vertex normals

vt 0.000000 1.000000 0.000000
vt 0.000000 0.000000 0.000000
vt 1.000000 1.000000 0.000000
vt 1.000000 0.000000 0.000000
# 4 texture coords

g Plane001
s 1
f 1/1/1 2/2/1 3/3/1 
f 4/4/1 3/3/1 2/2/1 
# 2 faces

