# 3ds Max Wavefront OBJ Exporter v0.97b - (c)2007 guruware
# File Created: 02.04.2021 12:43:05

#
# object Torus001
#

v  -0.000000 0.000000 -1.500000
v  0.370891 0.250000 -1.384184
v  0.388229 0.000000 -1.448889
v  -0.000000 0.250000 -1.433013
v  0.323524 0.433013 -1.207407
v  -0.000000 0.433013 -1.250000
v  0.258819 0.500000 -0.965926
v  -0.000000 0.500000 -1.000000
v  0.194114 0.433013 -0.724444
v  -0.000000 0.433013 -0.750000
v  0.146747 0.250000 -0.547668
v  -0.000000 0.250000 -0.566987
v  0.129410 0.000000 -0.482963
v  -0.000000 0.000000 -0.500000
v  0.146747 -0.250000 -0.547668
v  -0.000000 -0.250000 -0.566987
v  0.194114 -0.433013 -0.724444
v  -0.000000 -0.433013 -0.750000
v  0.258819 -0.500000 -0.965926
v  -0.000000 -0.500000 -1.000000
v  0.323524 -0.433013 -1.207407
v  -0.000000 -0.433013 -1.250000
v  0.370891 -0.250000 -1.384184
v  -0.000000 -0.250000 -1.433012
v  0.716506 0.250000 -1.241025
v  0.750000 0.000000 -1.299038
v  0.625000 0.433013 -1.082532
v  0.500000 0.500000 -0.866025
v  0.375000 0.433013 -0.649519
v  0.283494 0.250000 -0.491025
v  0.250000 0.000000 -0.433013
v  0.283494 -0.250000 -0.491025
v  0.375000 -0.433013 -0.649519
v  0.500000 -0.500000 -0.866025
v  0.625000 -0.433013 -1.082532
v  0.716506 -0.250000 -1.241025
v  1.013293 0.250000 -1.013293
v  1.060660 0.000000 -1.060660
v  0.883883 0.433013 -0.883883
v  0.707107 0.500000 -0.707107
v  0.530330 0.433013 -0.530330
v  0.400921 0.250000 -0.400921
v  0.353553 0.000000 -0.353553
v  0.400921 -0.250000 -0.400921
v  0.530330 -0.433013 -0.530330
v  0.707107 -0.500000 -0.707107
v  0.883883 -0.433013 -0.883883
v  1.013293 -0.250000 -1.013293
v  1.241025 0.250000 -0.716506
v  1.299038 0.000000 -0.750000
v  1.082532 0.433013 -0.625000
v  0.866025 0.500000 -0.500000
v  0.649519 0.433013 -0.375000
v  0.491025 0.250000 -0.283494
v  0.433013 0.000000 -0.250000
v  0.491025 -0.250000 -0.283494
v  0.649519 -0.433013 -0.375000
v  0.866025 -0.500000 -0.500000
v  1.082532 -0.433013 -0.625000
v  1.241025 -0.250000 -0.716506
v  1.384184 0.250000 -0.370891
v  1.448889 0.000000 -0.388229
v  1.207407 0.433013 -0.323524
v  0.965926 0.500000 -0.258819
v  0.724444 0.433013 -0.194114
v  0.547668 0.250000 -0.146747
v  0.482963 0.000000 -0.129410
v  0.547668 -0.250000 -0.146747
v  0.724444 -0.433013 -0.194114
v  0.965926 -0.500000 -0.258819
v  1.207407 -0.433013 -0.323524
v  1.384184 -0.250000 -0.370891
v  1.433013 0.250000 -0.000000
v  1.500000 0.000000 -0.000000
v  1.250000 0.433013 -0.000000
v  1.000000 0.500000 -0.000000
v  0.750000 0.433013 -0.000000
v  0.566987 0.250000 -0.000000
v  0.500000 0.000000 -0.000000
v  0.566987 -0.250000 -0.000000
v  0.750000 -0.433013 -0.000000
v  1.000000 -0.500000 -0.000000
v  1.250000 -0.433013 -0.000000
v  1.433012 -0.250000 -0.000000
v  1.384184 0.250000 0.370891
v  1.448889 0.000000 0.388229
v  1.207407 0.433013 0.323524
v  0.965926 0.500000 0.258819
v  0.724444 0.433013 0.194114
v  0.547668 0.250000 0.146747
v  0.482963 0.000000 0.129410
v  0.547668 -0.250000 0.146747
v  0.724444 -0.433013 0.194114
v  0.965926 -0.500000 0.258819
v  1.207407 -0.433013 0.323524
v  1.384184 -0.250000 0.370891
v  1.241025 0.250000 0.716506
v  1.299038 0.000000 0.750000
v  1.082532 0.433013 0.625000
v  0.866025 0.500000 0.500000
v  0.649519 0.433013 0.375000
v  0.491025 0.250000 0.283494
v  0.433013 0.000000 0.250000
v  0.491025 -0.250000 0.283494
v  0.649519 -0.433013 0.375000
v  0.866025 -0.500000 0.500000
v  1.082532 -0.433013 0.625000
v  1.241025 -0.250000 0.716506
v  1.013293 0.250000 1.013293
v  1.060660 0.000000 1.060660
v  0.883883 0.433013 0.883883
v  0.707107 0.500000 0.707107
v  0.530330 0.433013 0.530330
v  0.400921 0.250000 0.400921
v  0.353553 0.000000 0.353553
v  0.400921 -0.250000 0.400921
v  0.530330 -0.433013 0.530330
v  0.707107 -0.500000 0.707107
v  0.883883 -0.433013 0.883883
v  1.013293 -0.250000 1.013293
v  0.716506 0.250000 1.241025
v  0.750000 0.000000 1.299038
v  0.625000 0.433013 1.082532
v  0.500000 0.500000 0.866025
v  0.375000 0.433013 0.649519
v  0.283494 0.250000 0.491025
v  0.250000 0.000000 0.433013
v  0.283494 -0.250000 0.491025
v  0.375000 -0.433013 0.649519
v  0.500000 -0.500000 0.866025
v  0.625000 -0.433013 1.082532
v  0.716506 -0.250000 1.241025
v  0.370891 0.250000 1.384184
v  0.388229 0.000000 1.448889
v  0.323524 0.433013 1.207407
v  0.258819 0.500000 0.965926
v  0.194114 0.433013 0.724444
v  0.146747 0.250000 0.547668
v  0.129410 0.000000 0.482963
v  0.146747 -0.250000 0.547668
v  0.194114 -0.433013 0.724444
v  0.258819 -0.500000 0.965926
v  0.323524 -0.433013 1.207407
v  0.370891 -0.250000 1.384184
v  0.000000 0.250000 1.433013
v  0.000000 0.000000 1.500000
v  0.000000 0.433013 1.250000
v  0.000000 0.500000 1.000000
v  0.000000 0.433013 0.750000
v  0.000000 0.250000 0.566987
v  0.000000 0.000000 0.500000
v  0.000000 -0.250000 0.566987
v  0.000000 -0.433013 0.750000
v  0.000000 -0.500000 1.000000
v  0.000000 -0.433013 1.250000
v  0.000000 -0.250000 1.433012
v  -0.370891 0.250000 1.384184
v  -0.388228 0.000000 1.448889
v  -0.323524 0.433013 1.207407
v  -0.258819 0.500000 0.965926
v  -0.194114 0.433013 0.724444
v  -0.146747 0.250000 0.547668
v  -0.129409 0.000000 0.482963
v  -0.146747 -0.250000 0.547668
v  -0.194114 -0.433013 0.724444
v  -0.258819 -0.500000 0.965926
v  -0.323524 -0.433013 1.207407
v  -0.370891 -0.250000 1.384184
v  -0.716506 0.250000 1.241026
v  -0.750000 0.000000 1.299038
v  -0.625000 0.433013 1.082532
v  -0.500000 0.500000 0.866026
v  -0.375000 0.433013 0.649519
v  -0.283494 0.250000 0.491025
v  -0.250000 0.000000 0.433013
v  -0.283494 -0.250000 0.491025
v  -0.375000 -0.433013 0.649519
v  -0.500000 -0.500000 0.866025
v  -0.625000 -0.433013 1.082532
v  -0.716506 -0.250000 1.241025
v  -1.013293 0.250000 1.013293
v  -1.060660 0.000000 1.060660
v  -0.883883 0.433013 0.883884
v  -0.707107 0.500000 0.707107
v  -0.530330 0.433013 0.530330
v  -0.400920 0.250000 0.400921
v  -0.353553 0.000000 0.353553
v  -0.400920 -0.250000 0.400921
v  -0.530330 -0.433013 0.530330
v  -0.707106 -0.500000 0.707107
v  -0.883883 -0.433013 0.883884
v  -1.013293 -0.250000 1.013293
v  -1.241025 0.250000 0.716507
v  -1.299038 0.000000 0.750000
v  -1.082532 0.433013 0.625000
v  -0.866025 0.500000 0.500000
v  -0.649519 0.433013 0.375000
v  -0.491025 0.250000 0.283494
v  -0.433013 0.000000 0.250000
v  -0.491025 -0.250000 0.283494
v  -0.649519 -0.433013 0.375000
v  -0.866025 -0.500000 0.500000
v  -1.082531 -0.433013 0.625000
v  -1.241025 -0.250000 0.716507
v  -1.384184 0.250000 0.370891
v  -1.448889 0.000000 0.388229
v  -1.207407 0.433013 0.323524
v  -0.965926 0.500000 0.258819
v  -0.724444 0.433013 0.194115
v  -0.547668 0.250000 0.146747
v  -0.482963 0.000000 0.129410
v  -0.547668 -0.250000 0.146747
v  -0.724444 -0.433013 0.194114
v  -0.965926 -0.500000 0.258819
v  -1.207407 -0.433013 0.323524
v  -1.384184 -0.250000 0.370891
v  -1.433013 0.250000 0.000001
v  -1.500000 0.000000 0.000001
v  -1.250000 0.433013 0.000000
v  -1.000000 0.500000 0.000000
v  -0.750000 0.433013 0.000000
v  -0.566987 0.250000 0.000000
v  -0.500000 0.000000 0.000000
v  -0.566987 -0.250000 0.000000
v  -0.750000 -0.433013 0.000000
v  -1.000000 -0.500000 0.000000
v  -1.250000 -0.433013 0.000000
v  -1.433012 -0.250000 0.000001
v  -1.384184 0.250000 -0.370890
v  -1.448889 0.000000 -0.388228
v  -1.207407 0.433013 -0.323523
v  -0.965926 0.500000 -0.258819
v  -0.724444 0.433013 -0.194114
v  -0.547668 0.250000 -0.146747
v  -0.482963 0.000000 -0.129409
v  -0.547668 -0.250000 -0.146747
v  -0.724444 -0.433013 -0.194114
v  -0.965926 -0.500000 -0.258819
v  -1.207407 -0.433013 -0.323523
v  -1.384184 -0.250000 -0.370890
v  -1.241026 0.250000 -0.716506
v  -1.299038 0.000000 -0.749999
v  -1.082532 0.433013 -0.624999
v  -0.866026 0.500000 -0.500000
v  -0.649519 0.433013 -0.375000
v  -0.491026 0.250000 -0.283493
v  -0.433013 0.000000 -0.250000
v  -0.491026 -0.250000 -0.283493
v  -0.649519 -0.433013 -0.375000
v  -0.866025 -0.500000 -0.499999
v  -1.082532 -0.433013 -0.624999
v  -1.241026 -0.250000 -0.716506
v  -1.013294 0.250000 -1.013292
v  -1.060661 0.000000 -1.060660
v  -0.883884 0.433013 -0.883883
v  -0.707107 0.500000 -0.707106
v  -0.530330 0.433013 -0.530330
v  -0.400921 0.250000 -0.400920
v  -0.353554 0.000000 -0.353553
v  -0.400921 -0.250000 -0.400920
v  -0.530330 -0.433013 -0.530330
v  -0.707107 -0.500000 -0.707106
v  -0.883884 -0.433013 -0.883883
v  -1.013293 -0.250000 -1.013292
v  -0.716507 0.250000 -1.241025
v  -0.750000 0.000000 -1.299038
v  -0.625000 0.433013 -1.082531
v  -0.500000 0.500000 -0.866025
v  -0.375000 0.433013 -0.649519
v  -0.283494 0.250000 -0.491025
v  -0.250000 0.000000 -0.433013
v  -0.283494 -0.250000 -0.491025
v  -0.375000 -0.433013 -0.649519
v  -0.500000 -0.500000 -0.866025
v  -0.625000 -0.433013 -1.082531
v  -0.716507 -0.250000 -1.241025
v  -0.370892 0.250000 -1.384184
v  -0.388229 0.000000 -1.448889
v  -0.323524 0.433013 -1.207407
v  -0.258819 0.500000 -0.965926
v  -0.194115 0.433013 -0.724444
v  -0.146747 0.250000 -0.547668
v  -0.129410 0.000000 -0.482963
v  -0.146747 -0.250000 -0.547668
v  -0.194115 -0.433013 -0.724444
v  -0.258819 -0.500000 -0.965925
v  -0.323524 -0.433013 -1.207407
v  -0.370891 -0.250000 -1.384184
# 288 vertices

vn -0.000000 -0.000000 -1.000000
vn 0.225487 0.490902 -0.841529
vn 0.258819 -0.000000 -0.965926
vn -0.000000 0.490902 -0.871215
vn 0.133505 0.856695 -0.498247
vn -0.000000 0.856695 -0.515823
vn 0.005580 0.999768 -0.020824
vn -0.000000 0.999768 -0.021559
vn -0.125136 0.875350 0.467016
vn 0.000000 0.875350 0.483490
vn -0.222698 0.509550 0.831122
vn 0.000000 0.509550 0.860441
vn -0.258819 0.000000 0.965926
vn 0.000000 0.000000 1.000000
vn -0.222698 -0.509550 0.831122
vn 0.000000 -0.509550 0.860441
vn -0.125137 -0.875350 0.467016
vn 0.000000 -0.875350 0.483491
vn 0.005580 -0.999768 -0.020824
vn -0.000000 -0.999768 -0.021559
vn 0.133505 -0.856695 -0.498246
vn -0.000000 -0.856695 -0.515823
vn 0.225487 -0.490903 -0.841528
vn -0.000000 -0.490903 -0.871214
vn 0.435607 0.490902 -0.754494
vn 0.500000 -0.000000 -0.866025
vn 0.257912 0.856695 -0.446716
vn 0.010780 0.999768 -0.018671
vn -0.241745 0.875350 0.418715
vn -0.430220 0.509550 0.745164
vn -0.500000 -0.000000 0.866025
vn -0.430220 -0.509550 0.745164
vn -0.241745 -0.875350 0.418715
vn 0.010779 -0.999768 -0.018670
vn 0.257911 -0.856695 -0.446716
vn 0.435607 -0.490903 -0.754494
vn 0.616042 0.490902 -0.616042
vn 0.707107 -0.000000 -0.707107
vn 0.364742 0.856695 -0.364742
vn 0.015245 0.999768 -0.015245
vn -0.341879 0.875350 0.341879
vn -0.608424 0.509550 0.608424
vn -0.707107 -0.000000 0.707107
vn -0.608424 -0.509550 0.608424
vn -0.341880 -0.875350 0.341880
vn 0.015244 -0.999768 -0.015244
vn 0.364742 -0.856695 -0.364742
vn 0.616042 -0.490903 -0.616042
vn 0.754494 0.490902 -0.435607
vn 0.866025 -0.000000 -0.500000
vn 0.446716 0.856695 -0.257912
vn 0.018671 0.999768 -0.010780
vn -0.418715 0.875350 0.241745
vn -0.745164 0.509550 0.430220
vn -0.866025 0.000000 0.500000
vn -0.745164 -0.509550 0.430220
vn -0.418715 -0.875350 0.241745
vn 0.018670 -0.999768 -0.010779
vn 0.446716 -0.856695 -0.257911
vn 0.754494 -0.490903 -0.435607
vn 0.841529 0.490902 -0.225487
vn 0.965926 -0.000000 -0.258819
vn 0.498247 0.856695 -0.133505
vn 0.020824 0.999768 -0.005580
vn -0.467016 0.875350 0.125136
vn -0.831122 0.509550 0.222699
vn -0.965926 0.000000 0.258819
vn -0.831122 -0.509550 0.222698
vn -0.467016 -0.875350 0.125137
vn 0.020824 -0.999768 -0.005580
vn 0.498246 -0.856695 -0.133505
vn 0.841528 -0.490903 -0.225487
vn 0.871215 0.490902 0.000000
vn 1.000000 -0.000000 -0.000000
vn 0.515823 0.856695 0.000000
vn 0.021559 0.999768 0.000000
vn -0.483490 0.875350 -0.000000
vn -0.860441 0.509550 -0.000000
vn -1.000000 0.000000 -0.000000
vn -0.860441 -0.509550 -0.000000
vn -0.483491 -0.875350 0.000000
vn 0.021559 -0.999768 -0.000000
vn 0.515823 -0.856695 -0.000000
vn 0.871214 -0.490903 -0.000000
vn 0.841529 0.490902 0.225487
vn 0.965926 -0.000000 0.258819
vn 0.498247 0.856695 0.133505
vn 0.020824 0.999768 0.005580
vn -0.467016 0.875350 -0.125136
vn -0.831122 0.509550 -0.222698
vn -0.965926 0.000000 -0.258819
vn -0.831122 -0.509550 -0.222699
vn -0.467016 -0.875350 -0.125137
vn 0.020824 -0.999768 0.005580
vn 0.498246 -0.856695 0.133505
vn 0.841528 -0.490903 0.225487
vn 0.754494 0.490902 0.435607
vn 0.866025 -0.000000 0.500000
vn 0.446716 0.856695 0.257912
vn 0.018671 0.999768 0.010780
vn -0.418715 0.875350 -0.241745
vn -0.745164 0.509550 -0.430220
vn -0.866025 -0.000000 -0.500000
vn -0.745164 -0.509550 -0.430220
vn -0.418715 -0.875350 -0.241745
vn 0.018670 -0.999768 0.010779
vn 0.446716 -0.856695 0.257911
vn 0.754494 -0.490903 0.435607
vn 0.616042 0.490902 0.616042
vn 0.707107 -0.000000 0.707107
vn 0.364742 0.856695 0.364742
vn 0.015245 0.999768 0.015245
vn -0.341879 0.875350 -0.341879
vn -0.608424 0.509550 -0.608424
vn -0.707107 0.000000 -0.707107
vn -0.608424 -0.509550 -0.608424
vn -0.341879 -0.875350 -0.341880
vn 0.015244 -0.999768 0.015244
vn 0.364742 -0.856695 0.364742
vn 0.616042 -0.490903 0.616042
vn 0.435607 0.490902 0.754494
vn 0.500000 -0.000000 0.866025
vn 0.257912 0.856695 0.446716
vn 0.010780 0.999768 0.018671
vn -0.241745 0.875350 -0.418715
vn -0.430220 0.509550 -0.745164
vn -0.500000 0.000000 -0.866025
vn -0.430220 -0.509550 -0.745164
vn -0.241745 -0.875350 -0.418715
vn 0.010779 -0.999768 0.018670
vn 0.257911 -0.856695 0.446716
vn 0.435607 -0.490903 0.754494
vn 0.225487 0.490902 0.841529
vn 0.258819 -0.000000 0.965926
vn 0.133505 0.856695 0.498247
vn 0.005580 0.999768 0.020824
vn -0.125136 0.875350 -0.467016
vn -0.222698 0.509550 -0.831122
vn -0.258819 0.000000 -0.965926
vn -0.222698 -0.509550 -0.831122
vn -0.125137 -0.875350 -0.467016
vn 0.005580 -0.999768 0.020824
vn 0.133505 -0.856695 0.498246
vn 0.225487 -0.490903 0.841528
vn 0.000000 0.490902 0.871215
vn 0.000000 -0.000000 1.000000
vn 0.000000 0.856695 0.515823
vn 0.000000 0.999768 0.021559
vn -0.000000 0.875350 -0.483490
vn -0.000000 0.509550 -0.860441
vn -0.000000 0.000000 -1.000000
vn -0.000000 -0.509550 -0.860441
vn -0.000000 -0.875350 -0.483491
vn 0.000000 -0.999768 0.021559
vn 0.000000 -0.856695 0.515823
vn 0.000000 -0.490903 0.871214
vn -0.225487 0.490902 0.841529
vn -0.258819 -0.000000 0.965926
vn -0.133505 0.856695 0.498247
vn -0.005580 0.999768 0.020824
vn 0.125136 0.875350 -0.467016
vn 0.222698 0.509550 -0.831122
vn 0.258819 0.000000 -0.965926
vn 0.222698 -0.509550 -0.831122
vn 0.125137 -0.875350 -0.467016
vn -0.005580 -0.999768 0.020824
vn -0.133505 -0.856695 0.498246
vn -0.225487 -0.490903 0.841529
vn -0.435607 0.490902 0.754494
vn -0.257912 0.856695 0.446716
vn -0.010779 0.999768 0.018671
vn 0.241745 0.875350 -0.418715
vn 0.430220 0.509550 -0.745164
vn 0.500000 0.000000 -0.866026
vn 0.430220 -0.509550 -0.745164
vn 0.241745 -0.875350 -0.418715
vn -0.010779 -0.999768 0.018670
vn -0.257911 -0.856695 0.446716
vn -0.435607 -0.490903 0.754494
vn -0.616042 0.490902 0.616042
vn -0.364742 0.856695 0.364742
vn -0.015245 0.999768 0.015245
vn 0.341879 0.875350 -0.341879
vn 0.608423 0.509550 -0.608424
vn 0.707107 0.000000 -0.707107
vn 0.608424 -0.509550 -0.608424
vn 0.341879 -0.875350 -0.341880
vn -0.015244 -0.999768 0.015244
vn -0.364742 -0.856695 0.364742
vn -0.616041 -0.490903 0.616042
vn -0.754494 0.490902 0.435608
vn -0.866025 -0.000000 0.500000
vn -0.446716 0.856695 0.257912
vn -0.018671 0.999768 0.010780
vn 0.418715 0.875350 -0.241745
vn 0.745164 0.509550 -0.430221
vn 0.866025 0.000000 -0.500000
vn 0.745164 -0.509550 -0.430221
vn 0.418715 -0.875350 -0.241745
vn -0.018670 -0.999768 0.010779
vn -0.446716 -0.856695 0.257912
vn -0.754494 -0.490903 0.435607
vn -0.841529 0.490902 0.225487
vn -0.965926 -0.000000 0.258819
vn -0.498247 0.856695 0.133505
vn -0.020824 0.999768 0.005580
vn 0.467016 0.875350 -0.125137
vn 0.831122 0.509550 -0.222699
vn 0.965926 0.000000 -0.258819
vn 0.831122 -0.509550 -0.222699
vn 0.467016 -0.875350 -0.125137
vn -0.020824 -0.999768 0.005580
vn -0.498246 -0.856695 0.133505
vn -0.841528 -0.490903 0.225487
vn -0.871215 0.490902 0.000000
vn -1.000000 -0.000000 0.000000
vn -0.515823 0.856695 0.000000
vn -0.021559 0.999768 0.000000
vn 0.483490 0.875350 -0.000000
vn 0.860441 0.509550 -0.000000
vn 1.000000 0.000000 -0.000000
vn 0.860441 -0.509550 -0.000000
vn 0.483491 -0.875350 -0.000000
vn -0.021559 -0.999768 0.000000
vn -0.515823 -0.856695 0.000000
vn -0.871214 -0.490903 0.000000
vn -0.841529 0.490902 -0.225487
vn -0.965926 -0.000000 -0.258819
vn -0.498247 0.856695 -0.133505
vn -0.020824 0.999768 -0.005580
vn 0.467016 0.875350 0.125136
vn 0.831122 0.509550 0.222698
vn 0.965926 0.000000 0.258819
vn 0.831122 -0.509550 0.222698
vn 0.467016 -0.875350 0.125136
vn -0.020824 -0.999768 -0.005580
vn -0.498247 -0.856695 -0.133505
vn -0.841529 -0.490903 -0.225487
vn -0.754494 0.490902 -0.435607
vn -0.866026 -0.000000 -0.499999
vn -0.446716 0.856695 -0.257911
vn -0.018671 0.999768 -0.010779
vn 0.418715 0.875350 0.241745
vn 0.745164 0.509550 0.430220
vn 0.866026 0.000000 0.500000
vn 0.745164 -0.509550 0.430220
vn 0.418715 -0.875350 0.241745
vn -0.018670 -0.999768 -0.010779
vn -0.446716 -0.856695 -0.257911
vn -0.754494 -0.490903 -0.435607
vn -0.616042 0.490902 -0.616041
vn -0.707107 -0.000000 -0.707106
vn -0.364742 0.856695 -0.364742
vn -0.015245 0.999768 -0.015245
vn 0.341879 0.875350 0.341879
vn 0.608424 0.509550 0.608423
vn 0.707107 -0.000000 0.707106
vn 0.608424 -0.509550 0.608423
vn 0.341880 -0.875350 0.341879
vn -0.015244 -0.999768 -0.015244
vn -0.364742 -0.856695 -0.364742
vn -0.616042 -0.490903 -0.616041
vn -0.435608 0.490902 -0.754494
vn -0.500000 -0.000000 -0.866025
vn -0.257912 0.856695 -0.446716
vn -0.010780 0.999768 -0.018671
vn 0.241745 0.875350 0.418715
vn 0.430221 0.509550 0.745164
vn 0.500000 0.000000 0.866025
vn 0.430221 -0.509550 0.745164
vn 0.241745 -0.875350 0.418715
vn -0.010779 -0.999768 -0.018670
vn -0.257912 -0.856695 -0.446716
vn -0.435607 -0.490903 -0.754494
vn -0.225487 0.490902 -0.841529
vn -0.258819 -0.000000 -0.965926
vn -0.133505 0.856695 -0.498247
vn -0.005580 0.999768 -0.020824
vn 0.125137 0.875350 0.467016
vn 0.222699 0.509550 0.831122
vn 0.258819 0.000000 0.965926
vn 0.222699 -0.509550 0.831122
vn 0.125137 -0.875350 0.467016
vn -0.005580 -0.999768 -0.020824
vn -0.133505 -0.856695 -0.498246
vn -0.225487 -0.490903 -0.841528
# 286 vertex normals

vt 0.000000 0.000000 0.000000
vt 0.083333 0.041667 0.000000
vt 0.000000 0.041667 0.000000
vt 0.083333 0.000000 0.000000
vt 0.166667 0.041667 0.000000
vt 0.166667 0.000000 0.000000
vt 0.250000 0.041667 0.000000
vt 0.250000 0.000000 0.000000
vt 0.333333 0.041667 0.000000
vt 0.333333 0.000000 0.000000
vt 0.416667 0.041667 0.000000
vt 0.416667 0.000000 0.000000
vt 0.500000 0.041667 0.000000
vt 0.500000 0.000000 0.000000
vt 0.583333 0.041667 0.000000
vt 0.583333 0.000000 0.000000
vt 0.666667 0.041667 0.000000
vt 0.666667 0.000000 0.000000
vt 0.750000 0.041667 0.000000
vt 0.750000 0.000000 0.000000
vt 0.833333 0.041667 0.000000
vt 0.833333 0.000000 0.000000
vt 0.916667 0.041667 0.000000
vt 0.916667 0.000000 0.000000
vt 1.000000 0.041667 0.000000
vt 1.000000 0.000000 0.000000
vt 0.083333 0.083333 0.000000
vt 0.000000 0.083333 0.000000
vt 0.166667 0.083333 0.000000
vt 0.250000 0.083333 0.000000
vt 0.333333 0.083333 0.000000
vt 0.416667 0.083333 0.000000
vt 0.500000 0.083333 0.000000
vt 0.583333 0.083333 0.000000
vt 0.666667 0.083333 0.000000
vt 0.750000 0.083333 0.000000
vt 0.833333 0.083333 0.000000
vt 0.916667 0.083333 0.000000
vt 1.000000 0.083333 0.000000
vt 0.083333 0.125000 0.000000
vt 0.000000 0.125000 0.000000
vt 0.166667 0.125000 0.000000
vt 0.250000 0.125000 0.000000
vt 0.333333 0.125000 0.000000
vt 0.416667 0.125000 0.000000
vt 0.500000 0.125000 0.000000
vt 0.583333 0.125000 0.000000
vt 0.666667 0.125000 0.000000
vt 0.750000 0.125000 0.000000
vt 0.833333 0.125000 0.000000
vt 0.916667 0.125000 0.000000
vt 1.000000 0.125000 0.000000
vt 0.083333 0.166667 0.000000
vt 0.000000 0.166667 0.000000
vt 0.166667 0.166667 0.000000
vt 0.250000 0.166667 0.000000
vt 0.333333 0.166667 0.000000
vt 0.416667 0.166667 0.000000
vt 0.500000 0.166667 0.000000
vt 0.583333 0.166667 0.000000
vt 0.666667 0.166667 0.000000
vt 0.750000 0.166667 0.000000
vt 0.833333 0.166667 0.000000
vt 0.916667 0.166667 0.000000
vt 1.000000 0.166667 0.000000
vt 0.083333 0.208333 0.000000
vt 0.000000 0.208333 0.000000
vt 0.166667 0.208333 0.000000
vt 0.250000 0.208333 0.000000
vt 0.333333 0.208333 0.000000
vt 0.416667 0.208333 0.000000
vt 0.500000 0.208333 0.000000
vt 0.583333 0.208333 0.000000
vt 0.666667 0.208333 0.000000
vt 0.750000 0.208333 0.000000
vt 0.833333 0.208333 0.000000
vt 0.916667 0.208333 0.000000
vt 1.000000 0.208333 0.000000
vt 0.083333 0.250000 0.000000
vt 0.000000 0.250000 0.000000
vt 0.166667 0.250000 0.000000
vt 0.250000 0.250000 0.000000
vt 0.333333 0.250000 0.000000
vt 0.416667 0.250000 0.000000
vt 0.500000 0.250000 0.000000
vt 0.583333 0.250000 0.000000
vt 0.666667 0.250000 0.000000
vt 0.750000 0.250000 0.000000
vt 0.833333 0.250000 0.000000
vt 0.916667 0.250000 0.000000
vt 1.000000 0.250000 0.000000
vt 0.083333 0.291667 0.000000
vt 0.000000 0.291667 0.000000
vt 0.166667 0.291667 0.000000
vt 0.250000 0.291667 0.000000
vt 0.333333 0.291667 0.000000
vt 0.416667 0.291667 0.000000
vt 0.500000 0.291667 0.000000
vt 0.583333 0.291667 0.000000
vt 0.666667 0.291667 0.000000
vt 0.750000 0.291667 0.000000
vt 0.833333 0.291667 0.000000
vt 0.916667 0.291667 0.000000
vt 1.000000 0.291667 0.000000
vt 0.083333 0.333333 0.000000
vt 0.000000 0.333333 0.000000
vt 0.166667 0.333333 0.000000
vt 0.250000 0.333333 0.000000
vt 0.333333 0.333333 0.000000
vt 0.416667 0.333333 0.000000
vt 0.500000 0.333333 0.000000
vt 0.583333 0.333333 0.000000
vt 0.666667 0.333333 0.000000
vt 0.750000 0.333333 0.000000
vt 0.833333 0.333333 0.000000
vt 0.916667 0.333333 0.000000
vt 1.000000 0.333333 0.000000
vt 0.083333 0.375000 0.000000
vt 0.000000 0.375000 0.000000
vt 0.166667 0.375000 0.000000
vt 0.250000 0.375000 0.000000
vt 0.333333 0.375000 0.000000
vt 0.416667 0.375000 0.000000
vt 0.500000 0.375000 0.000000
vt 0.583333 0.375000 0.000000
vt 0.666667 0.375000 0.000000
vt 0.750000 0.375000 0.000000
vt 0.833333 0.375000 0.000000
vt 0.916667 0.375000 0.000000
vt 1.000000 0.375000 0.000000
vt 0.083333 0.416667 0.000000
vt 0.000000 0.416667 0.000000
vt 0.166667 0.416667 0.000000
vt 0.250000 0.416667 0.000000
vt 0.333333 0.416667 0.000000
vt 0.416667 0.416667 0.000000
vt 0.500000 0.416667 0.000000
vt 0.583333 0.416667 0.000000
vt 0.666667 0.416667 0.000000
vt 0.750000 0.416667 0.000000
vt 0.833333 0.416667 0.000000
vt 0.916667 0.416667 0.000000
vt 1.000000 0.416667 0.000000
vt 0.083333 0.458333 0.000000
vt 0.000000 0.458333 0.000000
vt 0.166667 0.458333 0.000000
vt 0.250000 0.458333 0.000000
vt 0.333333 0.458333 0.000000
vt 0.416667 0.458333 0.000000
vt 0.500000 0.458333 0.000000
vt 0.583333 0.458333 0.000000
vt 0.666667 0.458333 0.000000
vt 0.750000 0.458333 0.000000
vt 0.833333 0.458333 0.000000
vt 0.916667 0.458333 0.000000
vt 1.000000 0.458333 0.000000
vt 0.083333 0.500000 0.000000
vt 0.000000 0.500000 0.000000
vt 0.166667 0.500000 0.000000
vt 0.250000 0.500000 0.000000
vt 0.333333 0.500000 0.000000
vt 0.416667 0.500000 0.000000
vt 0.500000 0.500000 0.000000
vt 0.583333 0.500000 0.000000
vt 0.666667 0.500000 0.000000
vt 0.750000 0.500000 0.000000
vt 0.833333 0.500000 0.000000
vt 0.916667 0.500000 0.000000
vt 1.000000 0.500000 0.000000
vt 0.083333 0.541667 0.000000
vt 0.000000 0.541667 0.000000
vt 0.166667 0.541667 0.000000
vt 0.250000 0.541667 0.000000
vt 0.333333 0.541667 0.000000
vt 0.416667 0.541667 0.000000
vt 0.500000 0.541667 0.000000
vt 0.583333 0.541667 0.000000
vt 0.666667 0.541667 0.000000
vt 0.750000 0.541667 0.000000
vt 0.833333 0.541667 0.000000
vt 0.916667 0.541667 0.000000
vt 1.000000 0.541667 0.000000
vt 0.083333 0.583333 0.000000
vt 0.000000 0.583333 0.000000
vt 0.166667 0.583333 0.000000
vt 0.250000 0.583333 0.000000
vt 0.333333 0.583333 0.000000
vt 0.416667 0.583333 0.000000
vt 0.500000 0.583333 0.000000
vt 0.583333 0.583333 0.000000
vt 0.666667 0.583333 0.000000
vt 0.750000 0.583333 0.000000
vt 0.833333 0.583333 0.000000
vt 0.916667 0.583333 0.000000
vt 1.000000 0.583333 0.000000
vt 0.083333 0.625000 0.000000
vt 0.000000 0.625000 0.000000
vt 0.166667 0.625000 0.000000
vt 0.250000 0.625000 0.000000
vt 0.333333 0.625000 0.000000
vt 0.416667 0.625000 0.000000
vt 0.500000 0.625000 0.000000
vt 0.583333 0.625000 0.000000
vt 0.666667 0.625000 0.000000
vt 0.750000 0.625000 0.000000
vt 0.833333 0.625000 0.000000
vt 0.916667 0.625000 0.000000
vt 1.000000 0.625000 0.000000
vt 0.083333 0.666667 0.000000
vt 0.000000 0.666667 0.000000
vt 0.166667 0.666667 0.000000
vt 0.250000 0.666667 0.000000
vt 0.333333 0.666667 0.000000
vt 0.416667 0.666667 0.000000
vt 0.500000 0.666667 0.000000
vt 0.583333 0.666667 0.000000
vt 0.666667 0.666667 0.000000
vt 0.750000 0.666667 0.000000
vt 0.833333 0.666667 0.000000
vt 0.916667 0.666667 0.000000
vt 1.000000 0.666667 0.000000
vt 0.083333 0.708333 0.000000
vt 0.000000 0.708333 0.000000
vt 0.166667 0.708333 0.000000
vt 0.250000 0.708333 0.000000
vt 0.333333 0.708333 0.000000
vt 0.416667 0.708333 0.000000
vt 0.500000 0.708333 0.000000
vt 0.583333 0.708333 0.000000
vt 0.666667 0.708333 0.000000
vt 0.750000 0.708333 0.000000
vt 0.833333 0.708333 0.000000
vt 0.916667 0.708333 0.000000
vt 1.000000 0.708333 0.000000
vt 0.083333 0.750000 0.000000
vt 0.000000 0.750000 0.000000
vt 0.166667 0.750000 0.000000
vt 0.250000 0.750000 0.000000
vt 0.333333 0.750000 0.000000
vt 0.416667 0.750000 0.000000
vt 0.500000 0.750000 0.000000
vt 0.583333 0.750000 0.000000
vt 0.666667 0.750000 0.000000
vt 0.750000 0.750000 0.000000
vt 0.833333 0.750000 0.000000
vt 0.916667 0.750000 0.000000
vt 1.000000 0.750000 0.000000
vt 0.083333 0.791667 0.000000
vt 0.000000 0.791667 0.000000
vt 0.166667 0.791667 0.000000
vt 0.250000 0.791667 0.000000
vt 0.333333 0.791667 0.000000
vt 0.416667 0.791667 0.000000
vt 0.500000 0.791667 0.000000
vt 0.583333 0.791667 0.000000
vt 0.666667 0.791667 0.000000
vt 0.750000 0.791667 0.000000
vt 0.833333 0.791667 0.000000
vt 0.916667 0.791667 0.000000
vt 1.000000 0.791667 0.000000
vt 0.083333 0.833333 0.000000
vt 0.000000 0.833333 0.000000
vt 0.166667 0.833333 0.000000
vt 0.250000 0.833333 0.000000
vt 0.333333 0.833333 0.000000
vt 0.416667 0.833333 0.000000
vt 0.500000 0.833333 0.000000
vt 0.583333 0.833333 0.000000
vt 0.666667 0.833333 0.000000
vt 0.750000 0.833333 0.000000
vt 0.833333 0.833333 0.000000
vt 0.916667 0.833333 0.000000
vt 1.000000 0.833333 0.000000
vt 0.083333 0.875000 0.000000
vt 0.000000 0.875000 0.000000
vt 0.166667 0.875000 0.000000
vt 0.250000 0.875000 0.000000
vt 0.333333 0.875000 0.000000
vt 0.416667 0.875000 0.000000
vt 0.500000 0.875000 0.000000
vt 0.583333 0.875000 0.000000
vt 0.666667 0.875000 0.000000
vt 0.750000 0.875000 0.000000
vt 0.833333 0.875000 0.000000
vt 0.916667 0.875000 0.000000
vt 1.000000 0.875000 0.000000
vt 0.083333 0.916667 0.000000
vt 0.000000 0.916667 0.000000
vt 0.166667 0.916667 0.000000
vt 0.250000 0.916667 0.000000
vt 0.333333 0.916667 0.000000
vt 0.416667 0.916667 0.000000
vt 0.500000 0.916667 0.000000
vt 0.583333 0.916667 0.000000
vt 0.666667 0.916667 0.000000
vt 0.750000 0.916667 0.000000
vt 0.833333 0.916667 0.000000
vt 0.916667 0.916667 0.000000
vt 1.000000 0.916667 0.000000
vt 0.083333 0.958333 0.000000
vt 0.000000 0.958333 0.000000
vt 0.166667 0.958333 0.000000
vt 0.250000 0.958333 0.000000
vt 0.333333 0.958333 0.000000
vt 0.416667 0.958333 0.000000
vt 0.500000 0.958333 0.000000
vt 0.583333 0.958333 0.000000
vt 0.666667 0.958333 0.000000
vt 0.750000 0.958333 0.000000
vt 0.833333 0.958333 0.000000
vt 0.916667 0.958333 0.000000
vt 1.000000 0.958333 0.000000
vt 0.083333 1.000000 0.000000
vt 0.000000 1.000000 0.000000
vt 0.166667 1.000000 0.000000
vt 0.250000 1.000000 0.000000
vt 0.333333 1.000000 0.000000
vt 0.416667 1.000000 0.000000
vt 0.500000 1.000000 0.000000
vt 0.583333 1.000000 0.000000
vt 0.666667 1.000000 0.000000
vt 0.750000 1.000000 0.000000
vt 0.833333 1.000000 0.000000
vt 0.916667 1.000000 0.000000
vt 1.000000 1.000000 0.000000
# 325 texture coords

g Torus001
s 1
f 1/1/1 2/2/2 3/3/3 
f 1/1/1 4/4/4 2/2/2 
f 4/4/4 5/5/5 2/2/2 
f 4/4/4 6/6/6 5/5/5 
f 6/6/6 7/7/7 5/5/5 
f 6/6/6 8/8/8 7/7/7 
f 8/8/8 9/9/9 7/7/7 
f 8/8/8 10/10/10 9/9/9 
f 10/10/10 11/11/11 9/9/9 
f 10/10/10 12/12/12 11/11/11 
f 12/12/12 13/13/13 11/11/11 
f 12/12/12 14/14/14 13/13/13 
f 14/14/14 15/15/15 13/13/13 
f 14/14/14 16/16/16 15/15/15 
f 16/16/16 17/17/17 15/15/15 
f 16/16/16 18/18/18 17/17/17 
f 18/18/18 19/19/19 17/17/17 
f 18/18/18 20/20/20 19/19/19 
f 20/20/20 21/21/21 19/19/19 
f 20/20/20 22/22/22 21/21/21 
f 22/22/22 23/23/23 21/21/21 
f 22/22/22 24/24/24 23/23/23 
f 24/24/24 3/25/3 23/23/23 
f 24/24/24 1/26/1 3/25/3 
f 3/3/3 25/27/25 26/28/26 
f 3/3/3 2/2/2 25/27/25 
f 2/2/2 27/29/27 25/27/25 
f 2/2/2 5/5/5 27/29/27 
f 5/5/5 28/30/28 27/29/27 
f 5/5/5 7/7/7 28/30/28 
f 7/7/7 29/31/29 28/30/28 
f 7/7/7 9/9/9 29/31/29 
f 9/9/9 30/32/30 29/31/29 
f 9/9/9 11/11/11 30/32/30 
f 11/11/11 31/33/31 30/32/30 
f 11/11/11 13/13/13 31/33/31 
f 13/13/13 32/34/32 31/33/31 
f 13/13/13 15/15/15 32/34/32 
f 15/15/15 33/35/33 32/34/32 
f 15/15/15 17/17/17 33/35/33 
f 17/17/17 34/36/34 33/35/33 
f 17/17/17 19/19/19 34/36/34 
f 19/19/19 35/37/35 34/36/34 
f 19/19/19 21/21/21 35/37/35 
f 21/21/21 36/38/36 35/37/35 
f 21/21/21 23/23/23 36/38/36 
f 23/23/23 26/39/26 36/38/36 
f 23/23/23 3/25/3 26/39/26 
f 26/28/26 37/40/37 38/41/38 
f 26/28/26 25/27/25 37/40/37 
f 25/27/25 39/42/39 37/40/37 
f 25/27/25 27/29/27 39/42/39 
f 27/29/27 40/43/40 39/42/39 
f 27/29/27 28/30/28 40/43/40 
f 28/30/28 41/44/41 40/43/40 
f 28/30/28 29/31/29 41/44/41 
f 29/31/29 42/45/42 41/44/41 
f 29/31/29 30/32/30 42/45/42 
f 30/32/30 43/46/43 42/45/42 
f 30/32/30 31/33/31 43/46/43 
f 31/33/31 44/47/44 43/46/43 
f 31/33/31 32/34/32 44/47/44 
f 32/34/32 45/48/45 44/47/44 
f 32/34/32 33/35/33 45/48/45 
f 33/35/33 46/49/46 45/48/45 
f 33/35/33 34/36/34 46/49/46 
f 34/36/34 47/50/47 46/49/46 
f 34/36/34 35/37/35 47/50/47 
f 35/37/35 48/51/48 47/50/47 
f 35/37/35 36/38/36 48/51/48 
f 36/38/36 38/52/38 48/51/48 
f 36/38/36 26/39/26 38/52/38 
f 38/41/38 49/53/49 50/54/50 
f 38/41/38 37/40/37 49/53/49 
f 37/40/37 51/55/51 49/53/49 
f 37/40/37 39/42/39 51/55/51 
f 39/42/39 52/56/52 51/55/51 
f 39/42/39 40/43/40 52/56/52 
f 40/43/40 53/57/53 52/56/52 
f 40/43/40 41/44/41 53/57/53 
f 41/44/41 54/58/54 53/57/53 
f 41/44/41 42/45/42 54/58/54 
f 42/45/42 55/59/55 54/58/54 
f 42/45/42 43/46/43 55/59/55 
f 43/46/43 56/60/56 55/59/55 
f 43/46/43 44/47/44 56/60/56 
f 44/47/44 57/61/57 56/60/56 
f 44/47/44 45/48/45 57/61/57 
f 45/48/45 58/62/58 57/61/57 
f 45/48/45 46/49/46 58/62/58 
f 46/49/46 59/63/59 58/62/58 
f 46/49/46 47/50/47 59/63/59 
f 47/50/47 60/64/60 59/63/59 
f 47/50/47 48/51/48 60/64/60 
f 48/51/48 50/65/50 60/64/60 
f 48/51/48 38/52/38 50/65/50 
f 50/54/50 61/66/61 62/67/62 
f 50/54/50 49/53/49 61/66/61 
f 49/53/49 63/68/63 61/66/61 
f 49/53/49 51/55/51 63/68/63 
f 51/55/51 64/69/64 63/68/63 
f 51/55/51 52/56/52 64/69/64 
f 52/56/52 65/70/65 64/69/64 
f 52/56/52 53/57/53 65/70/65 
f 53/57/53 66/71/66 65/70/65 
f 53/57/53 54/58/54 66/71/66 
f 54/58/54 67/72/67 66/71/66 
f 54/58/54 55/59/55 67/72/67 
f 55/59/55 68/73/68 67/72/67 
f 55/59/55 56/60/56 68/73/68 
f 56/60/56 69/74/69 68/73/68 
f 56/60/56 57/61/57 69/74/69 
f 57/61/57 70/75/70 69/74/69 
f 57/61/57 58/62/58 70/75/70 
f 58/62/58 71/76/71 70/75/70 
f 58/62/58 59/63/59 71/76/71 
f 59/63/59 72/77/72 71/76/71 
f 59/63/59 60/64/60 72/77/72 
f 60/64/60 62/78/62 72/77/72 
f 60/64/60 50/65/50 62/78/62 
f 62/67/62 73/79/73 74/80/74 
f 62/67/62 61/66/61 73/79/73 
f 61/66/61 75/81/75 73/79/73 
f 61/66/61 63/68/63 75/81/75 
f 63/68/63 76/82/76 75/81/75 
f 63/68/63 64/69/64 76/82/76 
f 64/69/64 77/83/77 76/82/76 
f 64/69/64 65/70/65 77/83/77 
f 65/70/65 78/84/78 77/83/77 
f 65/70/65 66/71/66 78/84/78 
f 66/71/66 79/85/79 78/84/78 
f 66/71/66 67/72/67 79/85/79 
f 67/72/67 80/86/80 79/85/79 
f 67/72/67 68/73/68 80/86/80 
f 68/73/68 81/87/81 80/86/80 
f 68/73/68 69/74/69 81/87/81 
f 69/74/69 82/88/82 81/87/81 
f 69/74/69 70/75/70 82/88/82 
f 70/75/70 83/89/83 82/88/82 
f 70/75/70 71/76/71 83/89/83 
f 71/76/71 84/90/84 83/89/83 
f 71/76/71 72/77/72 84/90/84 
f 72/77/72 74/91/74 84/90/84 
f 72/77/72 62/78/62 74/91/74 
f 74/80/74 85/92/85 86/93/86 
f 74/80/74 73/79/73 85/92/85 
f 73/79/73 87/94/87 85/92/85 
f 73/79/73 75/81/75 87/94/87 
f 75/81/75 88/95/88 87/94/87 
f 75/81/75 76/82/76 88/95/88 
f 76/82/76 89/96/89 88/95/88 
f 76/82/76 77/83/77 89/96/89 
f 77/83/77 90/97/90 89/96/89 
f 77/83/77 78/84/78 90/97/90 
f 78/84/78 91/98/91 90/97/90 
f 78/84/78 79/85/79 91/98/91 
f 79/85/79 92/99/92 91/98/91 
f 79/85/79 80/86/80 92/99/92 
f 80/86/80 93/100/93 92/99/92 
f 80/86/80 81/87/81 93/100/93 
f 81/87/81 94/101/94 93/100/93 
f 81/87/81 82/88/82 94/101/94 
f 82/88/82 95/102/95 94/101/94 
f 82/88/82 83/89/83 95/102/95 
f 83/89/83 96/103/96 95/102/95 
f 83/89/83 84/90/84 96/103/96 
f 84/90/84 86/104/86 96/103/96 
f 84/90/84 74/91/74 86/104/86 
f 86/93/86 97/105/97 98/106/98 
f 86/93/86 85/92/85 97/105/97 
f 85/92/85 99/107/99 97/105/97 
f 85/92/85 87/94/87 99/107/99 
f 87/94/87 100/108/100 99/107/99 
f 87/94/87 88/95/88 100/108/100 
f 88/95/88 101/109/101 100/108/100 
f 88/95/88 89/96/89 101/109/101 
f 89/96/89 102/110/102 101/109/101 
f 89/96/89 90/97/90 102/110/102 
f 90/97/90 103/111/103 102/110/102 
f 90/97/90 91/98/91 103/111/103 
f 91/98/91 104/112/104 103/111/103 
f 91/98/91 92/99/92 104/112/104 
f 92/99/92 105/113/105 104/112/104 
f 92/99/92 93/100/93 105/113/105 
f 93/100/93 106/114/106 105/113/105 
f 93/100/93 94/101/94 106/114/106 
f 94/101/94 107/115/107 106/114/106 
f 94/101/94 95/102/95 107/115/107 
f 95/102/95 108/116/108 107/115/107 
f 95/102/95 96/103/96 108/116/108 
f 96/103/96 98/117/98 108/116/108 
f 96/103/96 86/104/86 98/117/98 
f 98/106/98 109/118/109 110/119/110 
f 98/106/98 97/105/97 109/118/109 
f 97/105/97 111/120/111 109/118/109 
f 97/105/97 99/107/99 111/120/111 
f 99/107/99 112/121/112 111/120/111 
f 99/107/99 100/108/100 112/121/112 
f 100/108/100 113/122/113 112/121/112 
f 100/108/100 101/109/101 113/122/113 
f 101/109/101 114/123/114 113/122/113 
f 101/109/101 102/110/102 114/123/114 
f 102/110/102 115/124/115 114/123/114 
f 102/110/102 103/111/103 115/124/115 
f 103/111/103 116/125/116 115/124/115 
f 103/111/103 104/112/104 116/125/116 
f 104/112/104 117/126/117 116/125/116 
f 104/112/104 105/113/105 117/126/117 
f 105/113/105 118/127/118 117/126/117 
f 105/113/105 106/114/106 118/127/118 
f 106/114/106 119/128/119 118/127/118 
f 106/114/106 107/115/107 119/128/119 
f 107/115/107 120/129/120 119/128/119 
f 107/115/107 108/116/108 120/129/120 
f 108/116/108 110/130/110 120/129/120 
f 108/116/108 98/117/98 110/130/110 
f 110/119/110 121/131/121 122/132/122 
f 110/119/110 109/118/109 121/131/121 
f 109/118/109 123/133/123 121/131/121 
f 109/118/109 111/120/111 123/133/123 
f 111/120/111 124/134/124 123/133/123 
f 111/120/111 112/121/112 124/134/124 
f 112/121/112 125/135/125 124/134/124 
f 112/121/112 113/122/113 125/135/125 
f 113/122/113 126/136/126 125/135/125 
f 113/122/113 114/123/114 126/136/126 
f 114/123/114 127/137/127 126/136/126 
f 114/123/114 115/124/115 127/137/127 
f 115/124/115 128/138/128 127/137/127 
f 115/124/115 116/125/116 128/138/128 
f 116/125/116 129/139/129 128/138/128 
f 116/125/116 117/126/117 129/139/129 
f 117/126/117 130/140/130 129/139/129 
f 117/126/117 118/127/118 130/140/130 
f 118/127/118 131/141/131 130/140/130 
f 118/127/118 119/128/119 131/141/131 
f 119/128/119 132/142/132 131/141/131 
f 119/128/119 120/129/120 132/142/132 
f 120/129/120 122/143/122 132/142/132 
f 120/129/120 110/130/110 122/143/122 
f 122/132/122 133/144/133 134/145/134 
f 122/132/122 121/131/121 133/144/133 
f 121/131/121 135/146/135 133/144/133 
f 121/131/121 123/133/123 135/146/135 
f 123/133/123 136/147/136 135/146/135 
f 123/133/123 124/134/124 136/147/136 
f 124/134/124 137/148/137 136/147/136 
f 124/134/124 125/135/125 137/148/137 
f 125/135/125 138/149/138 137/148/137 
f 125/135/125 126/136/126 138/149/138 
f 126/136/126 139/150/139 138/149/138 
f 126/136/126 127/137/127 139/150/139 
f 127/137/127 140/151/140 139/150/139 
f 127/137/127 128/138/128 140/151/140 
f 128/138/128 141/152/141 140/151/140 
f 128/138/128 129/139/129 141/152/141 
f 129/139/129 142/153/142 141/152/141 
f 129/139/129 130/140/130 142/153/142 
f 130/140/130 143/154/143 142/153/142 
f 130/140/130 131/141/131 143/154/143 
f 131/141/131 144/155/144 143/154/143 
f 131/141/131 132/142/132 144/155/144 
f 132/142/132 134/156/134 144/155/144 
f 132/142/132 122/143/122 134/156/134 
f 134/145/134 145/157/145 146/158/146 
f 134/145/134 133/144/133 145/157/145 
f 133/144/133 147/159/147 145/157/145 
f 133/144/133 135/146/135 147/159/147 
f 135/146/135 148/160/148 147/159/147 
f 135/146/135 136/147/136 148/160/148 
f 136/147/136 149/161/149 148/160/148 
f 136/147/136 137/148/137 149/161/149 
f 137/148/137 150/162/150 149/161/149 
f 137/148/137 138/149/138 150/162/150 
f 138/149/138 151/163/151 150/162/150 
f 138/149/138 139/150/139 151/163/151 
f 139/150/139 152/164/152 151/163/151 
f 139/150/139 140/151/140 152/164/152 
f 140/151/140 153/165/153 152/164/152 
f 140/151/140 141/152/141 153/165/153 
f 141/152/141 154/166/154 153/165/153 
f 141/152/141 142/153/142 154/166/154 
f 142/153/142 155/167/155 154/166/154 
f 142/153/142 143/154/143 155/167/155 
f 143/154/143 156/168/156 155/167/155 
f 143/154/143 144/155/144 156/168/156 
f 144/155/144 146/169/146 156/168/156 
f 144/155/144 134/156/134 146/169/146 
f 146/158/146 157/170/157 158/171/158 
f 146/158/146 145/157/145 157/170/157 
f 145/157/145 159/172/159 157/170/157 
f 145/157/145 147/159/147 159/172/159 
f 147/159/147 160/173/160 159/172/159 
f 147/159/147 148/160/148 160/173/160 
f 148/160/148 161/174/161 160/173/160 
f 148/160/148 149/161/149 161/174/161 
f 149/161/149 162/175/162 161/174/161 
f 149/161/149 150/162/150 162/175/162 
f 150/162/150 163/176/163 162/175/162 
f 150/162/150 151/163/151 163/176/163 
f 151/163/151 164/177/164 163/176/163 
f 151/163/151 152/164/152 164/177/164 
f 152/164/152 165/178/165 164/177/164 
f 152/164/152 153/165/153 165/178/165 
f 153/165/153 166/179/166 165/178/165 
f 153/165/153 154/166/154 166/179/166 
f 154/166/154 167/180/167 166/179/166 
f 154/166/154 155/167/155 167/180/167 
f 155/167/155 168/181/168 167/180/167 
f 155/167/155 156/168/156 168/181/168 
f 156/168/156 158/182/158 168/181/168 
f 156/168/156 146/169/146 158/182/158 
f 158/171/158 169/183/169 170/184/31 
f 158/171/158 157/170/157 169/183/169 
f 157/170/157 171/185/170 169/183/169 
f 157/170/157 159/172/159 171/185/170 
f 159/172/159 172/186/171 171/185/170 
f 159/172/159 160/173/160 172/186/171 
f 160/173/160 173/187/172 172/186/171 
f 160/173/160 161/174/161 173/187/172 
f 161/174/161 174/188/173 173/187/172 
f 161/174/161 162/175/162 174/188/173 
f 162/175/162 175/189/174 174/188/173 
f 162/175/162 163/176/163 175/189/174 
f 163/176/163 176/190/175 175/189/174 
f 163/176/163 164/177/164 176/190/175 
f 164/177/164 177/191/176 176/190/175 
f 164/177/164 165/178/165 177/191/176 
f 165/178/165 178/192/177 177/191/176 
f 165/178/165 166/179/166 178/192/177 
f 166/179/166 179/193/178 178/192/177 
f 166/179/166 167/180/167 179/193/178 
f 167/180/167 180/194/179 179/193/178 
f 167/180/167 168/181/168 180/194/179 
f 168/181/168 170/195/31 180/194/179 
f 168/181/168 158/182/158 170/195/31 
f 170/184/31 181/196/180 182/197/43 
f 170/184/31 169/183/169 181/196/180 
f 169/183/169 183/198/181 181/196/180 
f 169/183/169 171/185/170 183/198/181 
f 171/185/170 184/199/182 183/198/181 
f 171/185/170 172/186/171 184/199/182 
f 172/186/171 185/200/183 184/199/182 
f 172/186/171 173/187/172 185/200/183 
f 173/187/172 186/201/184 185/200/183 
f 173/187/172 174/188/173 186/201/184 
f 174/188/173 187/202/185 186/201/184 
f 174/188/173 175/189/174 187/202/185 
f 175/189/174 188/203/186 187/202/185 
f 175/189/174 176/190/175 188/203/186 
f 176/190/175 189/204/187 188/203/186 
f 176/190/175 177/191/176 189/204/187 
f 177/191/176 190/205/188 189/204/187 
f 177/191/176 178/192/177 190/205/188 
f 178/192/177 191/206/189 190/205/188 
f 178/192/177 179/193/178 191/206/189 
f 179/193/178 192/207/190 191/206/189 
f 179/193/178 180/194/179 192/207/190 
f 180/194/179 182/208/43 192/207/190 
f 180/194/179 170/195/31 182/208/43 
f 182/197/43 193/209/191 194/210/192 
f 182/197/43 181/196/180 193/209/191 
f 181/196/180 195/211/193 193/209/191 
f 181/196/180 183/198/181 195/211/193 
f 183/198/181 196/212/194 195/211/193 
f 183/198/181 184/199/182 196/212/194 
f 184/199/182 197/213/195 196/212/194 
f 184/199/182 185/200/183 197/213/195 
f 185/200/183 198/214/196 197/213/195 
f 185/200/183 186/201/184 198/214/196 
f 186/201/184 199/215/197 198/214/196 
f 186/201/184 187/202/185 199/215/197 
f 187/202/185 200/216/198 199/215/197 
f 187/202/185 188/203/186 200/216/198 
f 188/203/186 201/217/199 200/216/198 
f 188/203/186 189/204/187 201/217/199 
f 189/204/187 202/218/200 201/217/199 
f 189/204/187 190/205/188 202/218/200 
f 190/205/188 203/219/201 202/218/200 
f 190/205/188 191/206/189 203/219/201 
f 191/206/189 204/220/202 203/219/201 
f 191/206/189 192/207/190 204/220/202 
f 192/207/190 194/221/192 204/220/202 
f 192/207/190 182/208/43 194/221/192 
f 194/210/192 205/222/203 206/223/204 
f 194/210/192 193/209/191 205/222/203 
f 193/209/191 207/224/205 205/222/203 
f 193/209/191 195/211/193 207/224/205 
f 195/211/193 208/225/206 207/224/205 
f 195/211/193 196/212/194 208/225/206 
f 196/212/194 209/226/207 208/225/206 
f 196/212/194 197/213/195 209/226/207 
f 197/213/195 210/227/208 209/226/207 
f 197/213/195 198/214/196 210/227/208 
f 198/214/196 211/228/209 210/227/208 
f 198/214/196 199/215/197 211/228/209 
f 199/215/197 212/229/210 211/228/209 
f 199/215/197 200/216/198 212/229/210 
f 200/216/198 213/230/211 212/229/210 
f 200/216/198 201/217/199 213/230/211 
f 201/217/199 214/231/212 213/230/211 
f 201/217/199 202/218/200 214/231/212 
f 202/218/200 215/232/213 214/231/212 
f 202/218/200 203/219/201 215/232/213 
f 203/219/201 216/233/214 215/232/213 
f 203/219/201 204/220/202 216/233/214 
f 204/220/202 206/234/204 216/233/214 
f 204/220/202 194/221/192 206/234/204 
f 206/223/204 217/235/215 218/236/216 
f 206/223/204 205/222/203 217/235/215 
f 205/222/203 219/237/217 217/235/215 
f 205/222/203 207/224/205 219/237/217 
f 207/224/205 220/238/218 219/237/217 
f 207/224/205 208/225/206 220/238/218 
f 208/225/206 221/239/219 220/238/218 
f 208/225/206 209/226/207 221/239/219 
f 209/226/207 222/240/220 221/239/219 
f 209/226/207 210/227/208 222/240/220 
f 210/227/208 223/241/221 222/240/220 
f 210/227/208 211/228/209 223/241/221 
f 211/228/209 224/242/222 223/241/221 
f 211/228/209 212/229/210 224/242/222 
f 212/229/210 225/243/223 224/242/222 
f 212/229/210 213/230/211 225/243/223 
f 213/230/211 226/244/224 225/243/223 
f 213/230/211 214/231/212 226/244/224 
f 214/231/212 227/245/225 226/244/224 
f 214/231/212 215/232/213 227/245/225 
f 215/232/213 228/246/226 227/245/225 
f 215/232/213 216/233/214 228/246/226 
f 216/233/214 218/247/216 228/246/226 
f 216/233/214 206/234/204 218/247/216 
f 218/236/216 229/248/227 230/249/228 
f 218/236/216 217/235/215 229/248/227 
f 217/235/215 231/250/229 229/248/227 
f 217/235/215 219/237/217 231/250/229 
f 219/237/217 232/251/230 231/250/229 
f 219/237/217 220/238/218 232/251/230 
f 220/238/218 233/252/231 232/251/230 
f 220/238/218 221/239/219 233/252/231 
f 221/239/219 234/253/232 233/252/231 
f 221/239/219 222/240/220 234/253/232 
f 222/240/220 235/254/233 234/253/232 
f 222/240/220 223/241/221 235/254/233 
f 223/241/221 236/255/234 235/254/233 
f 223/241/221 224/242/222 236/255/234 
f 224/242/222 237/256/235 236/255/234 
f 224/242/222 225/243/223 237/256/235 
f 225/243/223 238/257/236 237/256/235 
f 225/243/223 226/244/224 238/257/236 
f 226/244/224 239/258/237 238/257/236 
f 226/244/224 227/245/225 239/258/237 
f 227/245/225 240/259/238 239/258/237 
f 227/245/225 228/246/226 240/259/238 
f 228/246/226 230/260/228 240/259/238 
f 228/246/226 218/247/216 230/260/228 
f 230/249/228 241/261/239 242/262/240 
f 230/249/228 229/248/227 241/261/239 
f 229/248/227 243/263/241 241/261/239 
f 229/248/227 231/250/229 243/263/241 
f 231/250/229 244/264/242 243/263/241 
f 231/250/229 232/251/230 244/264/242 
f 232/251/230 245/265/243 244/264/242 
f 232/251/230 233/252/231 245/265/243 
f 233/252/231 246/266/244 245/265/243 
f 233/252/231 234/253/232 246/266/244 
f 234/253/232 247/267/245 246/266/244 
f 234/253/232 235/254/233 247/267/245 
f 235/254/233 248/268/246 247/267/245 
f 235/254/233 236/255/234 248/268/246 
f 236/255/234 249/269/247 248/268/246 
f 236/255/234 237/256/235 249/269/247 
f 237/256/235 250/270/248 249/269/247 
f 237/256/235 238/257/236 250/270/248 
f 238/257/236 251/271/249 250/270/248 
f 238/257/236 239/258/237 251/271/249 
f 239/258/237 252/272/250 251/271/249 
f 239/258/237 240/259/238 252/272/250 
f 240/259/238 242/273/240 252/272/250 
f 240/259/238 230/260/228 242/273/240 
f 242/262/240 253/274/251 254/275/252 
f 242/262/240 241/261/239 253/274/251 
f 241/261/239 255/276/253 253/274/251 
f 241/261/239 243/263/241 255/276/253 
f 243/263/241 256/277/254 255/276/253 
f 243/263/241 244/264/242 256/277/254 
f 244/264/242 257/278/255 256/277/254 
f 244/264/242 245/265/243 257/278/255 
f 245/265/243 258/279/256 257/278/255 
f 245/265/243 246/266/244 258/279/256 
f 246/266/244 259/280/257 258/279/256 
f 246/266/244 247/267/245 259/280/257 
f 247/267/245 260/281/258 259/280/257 
f 247/267/245 248/268/246 260/281/258 
f 248/268/246 261/282/259 260/281/258 
f 248/268/246 249/269/247 261/282/259 
f 249/269/247 262/283/260 261/282/259 
f 249/269/247 250/270/248 262/283/260 
f 250/270/248 263/284/261 262/283/260 
f 250/270/248 251/271/249 263/284/261 
f 251/271/249 264/285/262 263/284/261 
f 251/271/249 252/272/250 264/285/262 
f 252/272/250 254/286/252 264/285/262 
f 252/272/250 242/273/240 254/286/252 
f 254/275/252 265/287/263 266/288/264 
f 254/275/252 253/274/251 265/287/263 
f 253/274/251 267/289/265 265/287/263 
f 253/274/251 255/276/253 267/289/265 
f 255/276/253 268/290/266 267/289/265 
f 255/276/253 256/277/254 268/290/266 
f 256/277/254 269/291/267 268/290/266 
f 256/277/254 257/278/255 269/291/267 
f 257/278/255 270/292/268 269/291/267 
f 257/278/255 258/279/256 270/292/268 
f 258/279/256 271/293/269 270/292/268 
f 258/279/256 259/280/257 271/293/269 
f 259/280/257 272/294/270 271/293/269 
f 259/280/257 260/281/258 272/294/270 
f 260/281/258 273/295/271 272/294/270 
f 260/281/258 261/282/259 273/295/271 
f 261/282/259 274/296/272 273/295/271 
f 261/282/259 262/283/260 274/296/272 
f 262/283/260 275/297/273 274/296/272 
f 262/283/260 263/284/261 275/297/273 
f 263/284/261 276/298/274 275/297/273 
f 263/284/261 264/285/262 276/298/274 
f 264/285/262 266/299/264 276/298/274 
f 264/285/262 254/286/252 266/299/264 
f 266/288/264 277/300/275 278/301/276 
f 266/288/264 265/287/263 277/300/275 
f 265/287/263 279/302/277 277/300/275 
f 265/287/263 267/289/265 279/302/277 
f 267/289/265 280/303/278 279/302/277 
f 267/289/265 268/290/266 280/303/278 
f 268/290/266 281/304/279 280/303/278 
f 268/290/266 269/291/267 281/304/279 
f 269/291/267 282/305/280 281/304/279 
f 269/291/267 270/292/268 282/305/280 
f 270/292/268 283/306/281 282/305/280 
f 270/292/268 271/293/269 283/306/281 
f 271/293/269 284/307/282 283/306/281 
f 271/293/269 272/294/270 284/307/282 
f 272/294/270 285/308/283 284/307/282 
f 272/294/270 273/295/271 285/308/283 
f 273/295/271 286/309/284 285/308/283 
f 273/295/271 274/296/272 286/309/284 
f 274/296/272 287/310/285 286/309/284 
f 274/296/272 275/297/273 287/310/285 
f 275/297/273 288/311/286 287/310/285 
f 275/297/273 276/298/274 288/311/286 
f 276/298/274 278/312/276 288/311/286 
f 276/298/274 266/299/264 278/312/276 
f 278/301/276 4/313/4 1/314/1 
f 278/301/276 277/300/275 4/313/4 
f 277/300/275 6/315/6 4/313/4 
f 277/300/275 279/302/277 6/315/6 
f 279/302/277 8/316/8 6/315/6 
f 279/302/277 280/303/278 8/316/8 
f 280/303/278 10/317/10 8/316/8 
f 280/303/278 281/304/279 10/317/10 
f 281/304/279 12/318/12 10/317/10 
f 281/304/279 282/305/280 12/318/12 
f 282/305/280 14/319/14 12/318/12 
f 282/305/280 283/306/281 14/319/14 
f 283/306/281 16/320/16 14/319/14 
f 283/306/281 284/307/282 16/320/16 
f 284/307/282 18/321/18 16/320/16 
f 284/307/282 285/308/283 18/321/18 
f 285/308/283 20/322/20 18/321/18 
f 285/308/283 286/309/284 20/322/20 
f 286/309/284 22/323/22 20/322/20 
f 286/309/284 287/310/285 22/323/22 
f 287/310/285 24/324/24 22/323/22 
f 287/310/285 288/311/286 24/324/24 
f 288/311/286 1/325/1 24/324/24 
f 288/311/286 278/312/276 1/325/1 
# 576 faces

